…
new_data
```

    ## # A tibble: 417,592 × 16
    ##    arm     id    uid   reported_date victim_last victim_first victim_race
    ##    <fct>   <chr> <chr>         <dbl> <chr>       <chr>        <chr>      
    ##  1 control 01    <NA>             NA <NA>        <NA>         <NA>       
    ##  2 control 01    <NA>             NA <NA>        <NA>         <NA>       
    ##  3 control 01    <NA>             NA <NA>        <NA>         <NA>       
    ##  4 control 01    <NA>             NA <NA>        <NA>         <NA>       
    ##  5 control 01    <NA>             NA <NA>        <NA>         <NA>       
    ##  6 control 01    <NA>             NA <NA>        <NA>         <NA>       
    ##  7 control 01    <NA>             NA <NA>        <NA>         <NA>       
    ##  8 control 01    <NA>             NA <NA>        <NA>         <NA>       
    ##  9 control 02    <NA>             NA <NA>        <NA>         <NA>       
    ## 10 control 02    <NA>             NA <NA>        <NA>         <NA>       
    ## # … with 417,582 more rows, and 9 more variables: victim_age <chr>,
    ## #   victim_sex <chr>, city <chr>, state <chr>, lat <dbl>, lon <dbl>,
    ## #   disposition <chr>, week <dbl>, observations <dbl>
…
Load ‘iris’ dataset

``` r
library(tidyverse)

set.seed(10)

iris_with_missing = iris %>% 
  map_df(~replace(.x, sample(1:150, 20), NA)) %>%
  mutate(Species = as.character(Species))
iris_with_missing
```

    ## # A tibble: 150 × 5
    ##    Sepal.Length Sepal.Width Petal.Length Petal.Width Species
    ##           <dbl>       <dbl>        <dbl>       <dbl> <chr>  
    ##  1          5.1         3.5          1.4         0.2 setosa 
    ##  2          4.9         3            1.4         0.2 setosa 
    ##  3          4.7         3.2          1.3         0.2 setosa 
    ##  4          4.6         3.1          1.5        NA   setosa 
    ##  5          5           3.6          1.4         0.2 setosa 
    ##  6          5.4         3.9          1.7         0.4 setosa 
    ##  7         NA           3.4          1.4         0.3 setosa 
    ##  8          5           3.4          1.5         0.2 setosa 
    ##  9          4.4         2.9          1.4         0.2 setosa 
    ## 10          4.9         3.1         NA           0.1 setosa 
    ## # … with 140 more rows
…
``` r
missing_value = function(x) {
   if (is.numeric(x)) {
     replace_na(x, round(mean(x,na.rm = TRUE), digits = 1))
   }
   else if(is.character(x)){
    replace_na(x,"virginica")
   }
} 
map_dfr(iris_with_missing, missing_value)
```

    ## # A tibble: 150 × 5
    ##    Sepal.Length Sepal.Width Petal.Length Petal.Width Species
    ##           <dbl>       <dbl>        <dbl>       <dbl> <chr>  
    ##  1          5.1         3.5          1.4         0.2 setosa 
    ##  2          4.9         3            1.4         0.2 setosa 
    ##  3          4.7         3.2          1.3         0.2 setosa 
    ##  4          4.6         3.1          1.5         1.2 setosa 
    ##  5          5           3.6          1.4         0.2 setosa 
    ##  6          5.4         3.9          1.7         0.4 setosa 
    ##  7          5.8         3.4          1.4         0.3 setosa 
    ##  8          5           3.4          1.5         0.2 setosa 
    ##  9          4.4         2.9          1.4         0.2 setosa 
    ## 10          4.9         3.1          3.8         0.1 setosa 
    ## # … with 140 more rows
